{
  "project_info": {
    "project_number": "936804784495",
    "firebase_url": "https://sala-4dd5f.firebaseio.com",
    "project_id": "sala-4dd5f",
    "storage_bucket": "sala-4dd5f.appspot.com"
  },
  "client": [
    {
      "client_info": {
        "mobilesdk_app_id": "1:936804784495:android:bfa15ca49745ca0c",
        "android_client_info": {
          "package_name": "com.valneygama.sala"
        }
      },
      "oauth_client": [
        {
          "client_id": "936804784495-ql501dodrpk0i10t5l8ndvi2es31vql0.apps.googleusercontent.com",
          "client_type": 1,
          "android_info": {
            "package_name": "com.valneygama.sala",
            "certificate_hash": "eee19d013de545d8718c9c5d045183a9cb6515dc"
          }
        },
        {
          "client_id": "936804784495-i4e5le3fpaofph9en2759up88uphf5q9.apps.googleusercontent.com",
          "client_type": 3
        }
      ],
      "api_key": [
        {
          "current_key": "AIzaSyBuy3DXRIswgDJdi-psZ2kfaStUhWo1dpQ"
        }
      ],
      "services": {
        "analytics_service": {
          "status": 1
        },
        "appinvite_service": {
          "status": 2,
          "other_platform_oauth_client": [
            {
              "client_id": "936804784495-i4e5le3fpaofph9en2759up88uphf5q9.apps.googleusercontent.com",
              "client_type": 3
            }
          ]
        },
        "ads_service": {
          "status": 2
        }
      }
    }
  ],
  "configuration_version": "1"
}